id	id_prop	alignment	tokens	sentences	Topic	lan	dataset	comment
comment_26204	12314.0	In favor	132.0	7.0	GreenDeal	en	CFs	"I like your proposal, though the industry might partly dislike it. It's reasonable to retrofit used vehicles, with buses and trucks even more than with private vehicles because they are crucial to retrofit the public transport.
To improve legislation around existing retrofit kits might also help to sustain small & medium sized workshops in times of transition. They might help to overcome shortages in newly produced EV. They might help people to stay with something familiar & less intimidating. They might also help society to move faster in direction of renewable energy. But I guess, the great companies will only embrace that solution if demand for BEVs increases massively, so that they can't place their cars with combustion engines. "
comment_227901	18844.0	In favor	89.0	5.0	Democracy	en	CFs	It's high time we abolished veto in the Council... The veto does not serve the interests of European citizens but interests of a current political force in power in the country which is using the veto right. The same can be said with decisions concerning EU's foreign policy and taxation... The Council doesn't represent the will of the people but the interests of the elites in power. We need democracy - the voice of the majority of Europeans to be heard. 
comment_188036	89.0	In favor	38.0	3.0	OtherIdeas	en	CFs	"I like this idea. Similar to my thoughts. If interested check EU tax resident: The future is work mobility""; simplify taxation, enhance remote working, enable inter-country recruitment for companies."""
comment_207638	145.0	Against	101.0	6.0	Democracy	en	CFs	"Once implemented a real democracy in Europe where the european citizen is sovereign, yes the European Council can be removed.
As long as the EU has Member States based on the sovereignity, we need a European Council.
Within the current National-State judicial framework, the European Council solely can  propose new Treaties or modify existing ones. A more democractic EU can only happen thanks to the European Council. An alternative would be a revolution, the european citizen proclaims: we european citizen are above national state people! I am part of it  🙂 "
comment_611	210.0	Against	73.0	3.0	Migration	en	CFe-dev	IT WAS THE UK THAT REFUSED THE EU PROPOSAL OF EUROPEAN CITIZENSHIP FOR ITS CITIZENS LIVING IN THE EU. UNLUCKILY, AFTER BREXIT YOU HAVE BECOME A 3RD WORLD COUNTRY. BY THE WAY, ANY 3RD WORLD COUNTRY CITIZEN CAN GET HIS CITIZENSHIP THAT ENABLES HIM TO TRAVEL AND WORK FREELY IN ANY EU COUNTRY ONLY AFTER SOME YEARS OF PERMANENT RESIDENCE DEPENDING OF EACH EU COUNTRY'S IMMIGRATION POLICY. 
comment_17780	12970.0	Against	198.0	15.0	GreenDeal	en	CFe-dev	"To me the question seems more complex & maybe easier at the same time.
There seems to be a relationship between CO2 & PIB in the current system. But does that mean that the relationship is a law of nature? I don't think so. What is a real problem is that we have to grow in order to not fall into depression under the current system. Capital has to grow. Every company has to grow, every market, every economy in the world. Even if we only have a growth of a small percentage this means exponential growth in about numbers. And that's not sustainable.
What to do?
There are a whole bunch of suggestions. I do not know all of them. One comes from Nobel Prize winning Prof Yunus, who suggested that we should reconsider the setup of our economy & implement social business besides the current for profit businesses. Another is to use a sustainability tax to incentivize sustainable products & redirect capital where it is most useful. Another is creating local & regional circulation of money. "
comment_154277	130483.0	In favor	22.0	2.0	GreenDeal	fr	CFs	N'attendons pas qu'il soit trop tard ! Que l'Europe soutienne ses espèces, ainsi que les territoires ultra-marins de ses membres !
comment_168302	152329.0	In favor	17.0	2.0	ValuesRights	fr	CFs	La Science montre qu'un nouvel être humain existe dès la fécondation. Il doit être respecté.
comment_6636	1717.0	In favor	17.0	1.0	Democracy	fr	CFe-dev	Que par exemple Allemand, Anglais , Français soient les langues de production exclusives des documents.
comment_40707	769.0	Against	167.0	8.0	Health	fr	CFs	"Dans notre société moderne , la moir et lá fin de vie sont des sujets  tabous . 
Personnellement , je suis sûr que la vie conduits inexorablement à la mort . Naître s'est jour mourir et sela est inévitable . Donc nous devons avoir le courrage de regarder les chose t'elle quel sont ... Pour les personne Âgée , voir tres âgée , la vie ne donne plus aucune satisfaction , elle est souvent ressenti comme un fardeau ... J'espère que lorsque je serai tres âgée , îls y aura la possibilité de pouvoir faire mon dernier passage sur terre  ( dè lá vie Á lá mort ) , dàns lá dignité et humanité . L'euthanasie dois etre souhaitable si çela est une volonté . Le legislateur voir le corps médicale n'a rien à voir dans cette volonté de finir sa vie correctement ... Sans souffrance inutile , sans douleur , sans acharnement médicale .... ( nous ne somme pas un sujet d'expérience ) .  "
comment_42515	1687.0	Against	173.0	2.0	Economy	fr	CFs	"Bonjour , 
Un impôts indireçte est payer par les francais á l'Europe ...
Chaque année lá Françe donne une certaine somme à l'Europe , et 80% nous est rendu par les aides dè l'europe ... 
Certe seul les francais qui paie de l'impôts cotise indirectement ( 1/2 francais regle dè l'impôts , et se n'est pas moi qui définis qui devrais payer ) 
Ensuites , l'argent qui nous reviens (80% pour nous , le reste est renvoyer àu pays les plus pauvre de l'europe ) est répartis entre les francais , pour 65% a lá  PAC des agriculteurs qui represante 2% des francais , le reste dàns differants plan , industrie, infrastructure, devellopement sociale , éducation ) 
Par compte , certain pays europeen ne cotise pas ou sont tout simplement renforcé à 100% .... Bien sûr îls ne faut pas le dire .
D'ailleurs lá GB etait intégralement remborcer depuis les annee 1970 .. Îls ons bien profiter de nous  ...  honte à eux . "
comment_54815	43133.0	Against	74.0	4.0	OtherIdeas	fr	CFs	"Bonjour , 
Je ne crois pas que cette mesure soit acceptable et vraiment efficace...
Je suis plus favorable au develloppement d'une allimention saine et diversifier ...
Viande de bœuf , dè monton, du cochon ..
Des poisons d'eau douce et d'eau de mer ...
Des volailles , poulet , canards, dinde ... 
Dès légumes  verts ...
 Des pâtes , du riz , de la semoule...
Des fruits et laitage... "
comment_152066	16666.0	In favor	173.0	6.0	Democracy	es	CFs	"La Unión Europea no debe caer en el efecto Concorde. Se llama así al efecto de que algo que no es rentable no se quiere reconocer como tal porque se han invertido muchos esfuerzos en ello, y se sigue invirtiendo con la pretensión de que al final será rentable. Eso le ocurre a la Unión Europea con su política de 1+2 lenguas, en la teoría y la supremacía del inglés en la práctica. Por más que se invierta en ellas nunca serán rentables y eficaces salvo para la élite política económica y burócrata de la UE y de los Estados miembros.
Al final se abandonó la producción ruinosa del concorde que se había sustentado en el prestigio. Se debe igualmente abandonar la ruinosa política de falso multilingüismo e imposición implícita del inglés, más ruinosa que nunca cuando el Reino Unido ha abandonado la Unión Europea e implantar el Esperanto con una inversión y esfuerzo infinitamente inferior y mucho más rentable desde muy corto plazo."
comment_32572	13838.0	In favor	146.0	4.0	Digital	es	CFs	"Los avances tecnológicos en los que se basa la digitalización crearán nuevos puestos de trabajo, pero quienes van a perder sus empleos en esta transición podrían ser los menos preparados para aprovechar las nuevas oportunidades. Las competencias de hoy no se ajustarán a los trabajos de mañana y las nuevas competencias adquiridas pueden quedar rápidamente desfasadas. El objetivo central de esta nueva revolución tecnológica debería ser el impulso de una mejora sustancial del empleo y de la calidad de vida del conjunto de la población, reduciendo las desigualdades existentes y con el equilibrio medioambiental.
Las políticas públicas pueden y deben regular el ritmo de incorporación de nuevas tecnologías, coordinando el
impulso a la economía digital con las políticas para la promoción de la economía circular y la igualdad de oportunidades, integrando las dimensiones social,  medioambiental y económica."
comment_47889	23893.0	In favor	42.0	2.0	Education	es	CFe-dev	Totalmente de acuerdo. El éxito de ese programa debe impulsar su realización  a gran escala, en todas las escuelas de Europa, y no sólo en primaria, sino también en secundaria, bachillerato e incluso en la universidad.
comment_112135	14984.0	Against	119.0	5.0	Democracy	es	CFs	"yo prefiero hablar de una Convencion Ciudadana que pueda debatir und Constitucion Federal para los Estados Unidos de Europa.
“Tomando esta Conferencia en nuestras propias manos”
Podemos llegar a fundar los Estados Unidos de Europa con una Constitucion Federal.
En la Federacion FAEF ha empezado la Convencion ciudadana que debatira y ratificara la constitucion Federal hasta finales de mayo 2022.
Aqui en este enlace se puede ver la apertura de la Convencion :
https://www.faef.eu/en_gb/citizens-convention-progress-report-3/
Ademas tenemos programado una Videoconferencia todos los domingos a las 13.00 horas para intercambiar opiniones sobre como hacer llegar las ideas e inquietudes de los ciudadanos.
Ver en este enlace mas informacion:
https://futureu.europa.eu/processes/Democracy/f/5/meetings/40690
J.Giner"
comment_257	119.0	Against	28.0	2.0	Migration	es	CFs	"Creo que el rechazo a aquellos que son diferentes no ha resuelto muchos problemas sino más bien causarlos.
No creo que sea diferente en este asunto."
comment_84811	149.0	Against	213.0	21.0	ValuesRights	es	CFs	"Venga, igual, que en España no se respetarían las nacionalidades, si vamos a por ello.
Lo que pasa hoy en el continente, es lo que pasó, a un nivel más bajo, a lo largo del XIX: la unificación de Alemania, de Italia, o la centralización del estado en Francia, en España, etc.
Estamos en pleno proceso de unificación. Esto es imparable. Independientes, ya no funcionamos. Solo interdependientes podremos funcionar. ¿Prueba? ¡La Segunda Guerra Mundial, hombre! ¡No vamos a volver a lo mismo, caray!
Y, perdona, pero, en UE, ¿dónde hay soberanía pisoteada? ¿No te gusta? Vota para salir. Así de simple. UK salió. ¿No logras ganar la salida en referendo? Pues, así es la democracia. No solo tú cuentas. La vida, en sociedad tiene, que ser un consenso. O, si no, es la guerra.
La UE es la paz. Hace 75 años tenemos paz. Muchos olvidan, que la UE no es ál, que el empeño, en que no se repita un 39-45.
pax tibí :-)"
