	id	id_prop	alignment	tokens	sentences	Topic	lan	dataset	comment	sa_stanza
25	comment_7230	92.0	Against	1.0	1.0	Democracy	en	CFs	 .	[1]
26	comment_14075	12185.0	Against	5.0	1.0	Digital	en	CFs	hmhm I am not convinced	[0]
27	comment_224541	169060.0	Against	5.0	1.0	EUInTheWorld	en	CFs	Gender equality is inequality!	[1]
28	comment_133126	168.0	Against	3.0	1.0	Democracy	en	CFs	Hell no!	[0]
29	comment_105337	37687.0	Against	4.0	1.0	OtherIdeas	en	CFe-dev	There's Euronews. 	[1]
30	comment_203876	235258.0	Against	4.0	1.0	ValuesRights	en	CFs	Strongly oppose this.	[1]
31	comment_133159	301.0	Against	3.0	1.0	Democracy	en	CFs	No way!	[2]
32	comment_133026	137416.0	Against	2.0	1.0	ValuesRights	en	CFs	No.	[1]
33	comment_108670	638.0	Against	2.0	1.0	GreenDeal	en	CFs	Nonsens!	[1]
34	comment_161174	165167.0	Against	1.0	1.0	ValuesRights	en	CFs	.  	[1]
35	comment_8120	645.0	Against	1.0	1.0	Migration	en	CFs	.	[1]
36	comment_2150	224.0	Against	5.0	1.0	Migration	en	CFs	Deportation for shoplifting very disproportionate 	[0]
37	comment_38580	1425.0	Against	5.0	1.0	EUInTheWorld	en	CFs	Defeatists should remain silent. 	[1]
38	comment_9178	112.0	Against	3.0	1.0	Economy	en	CFs	Not in favor	[1]
39	comment_525	455.0	Against	3.0	1.0	Economy	en	CFs	Awful terrible idea 	[0]
40	comment_12510	6964.0	Against	1.0	1.0	OtherIdeas	en	CFs	nem	[1]
41	comment_174406	12212.0	Against	2.0	1.0	Migration	en	CFs	No.	[1]
42	comment_1078	119.0	Against	3.0	1.0	Migration	en	CFs	Will not happen	[1]
43	comment_118771	122299.0	Against	1.0	1.0	Digital	en	CFs	Offtopic	[0]
44	comment_2145	119.0	Against	4.0	1.0	Migration	en	CFs	Xenophobic, terrible idea	[0]
45	comment_24129	4665.0	Against	5.0	1.0	Digital	en	CFs	You lost me at mandatory	[0]
0	comment_223350	254369.0	In favor	2.0	1.0	ValuesRights	en	CFs	In favor	[1]
1	comment_12015	10269.0	In favor	1.0	1.0	OtherIdeas	en	CFs	Absolutely 	[2]
2	comment_220873	13844.0	In favor	3.0	1.0	EUInTheWorld	en	CFs	I agree. 	[1]
3	comment_237469	270834.0	In favor	5.0	1.0	GreenDeal	en	CFs	I also think so.	[1]
4	comment_72073	66991.0	In favor	3.0	1.0	OtherIdeas	en	CFs	Great idea !	[2]
5	comment_20025	5399.0	In favor	1.0	1.0	OtherIdeas	en	CFs	Creo 	[1]
6	comment_81050	77947.0	In favor	5.0	1.0	Economy	en	CFs	What a great initiative!	[2]
7	comment_8219	5879.0	In favor	3.0	1.0	GreenDeal	en	CFs	Very important! 	[2]
8	comment_12480	461.0	In favor	3.0	1.0	OtherIdeas	en	CFs	Definitely yes. 	[1]
9	comment_1549	51.0	In favor	1.0	1.0	OtherIdeas	en	CFs	Ja	[1]
10	comment_95644	71248.0	In favor	2.0	1.0	Education	en	CFs	Succes! 	[2]
11	comment_98177	13862.0	In favor	3.0	1.0	Democracy	en	CFs	Absolutely agree.	[1]
12	comment_126523	132562.0	In favor	4.0	1.0	GreenDeal	en	CFs	Travels make youth !	[1]
13	comment_8124	98.0	In favor	1.0	1.0	Health	en	CFs	. 	[1]
14	comment_49	45.0	In favor	3.0	2.0	Democracy	en	CFs	Yes!!	[2]
15	comment_242222	276640.0	In favor	3.0	1.0	Health	en	CFs	Very complete contribution 	[2]
16	comment_178300	164278.0	In favor	4.0	1.0	GreenDeal	en	CFs	I like it!	[2]
17	comment_79108	77947.0	In favor	3.0	1.0	Economy	en	CFs	Great initiative!	[2]
18	comment_217141	13863.0	In favor	2.0	1.0	Democracy	en	CFs	Absolutely!	[2]
19	comment_1811	790.0	In favor	3.0	1.0	Democracy	en	CFs	Excelent idea!	[2]
20	comment_229286	218661.0	In favor	1.0	1.0	OtherIdeas	en	CFs	Bra	[1]
21	comment_213874	219848.0	In favor	4.0	1.0	OtherIdeas	en	CFs	Yes for change!	[1]
22	comment_226483	255388.0	In favor	1.0	1.0	Democracy	en	CFs	Cat	[1]
23	comment_74	102.0	In favor	4.0	1.0	EUInTheWorld	en	CFs	Absolutely spot on.	[2]
24	comment_1065	826.0	In favor	4.0	2.0	Health	en	CFs	Amazing. Fully support	[2]
0	comment_26204	12314.0	In favor	132.0	7.0	GreenDeal	en	CFs	"I like your proposal, though the industry might partly dislike it. It's reasonable to retrofit used vehicles, with buses and trucks even more than with private vehicles because they are crucial to retrofit the public transport.
To improve legislation around existing retrofit kits might also help to sustain small & medium sized workshops in times of transition. They might help to overcome shortages in newly produced EV. They might help people to stay with something familiar & less intimidating. They might also help society to move faster in direction of renewable energy. But I guess, the great companies will only embrace that solution if demand for BEVs increases massively, so that they can't place their cars with combustion engines. "	[0]
1	comment_227901	18844.0	In favor	89.0	5.0	Democracy	en	CFs	It's high time we abolished veto in the Council... The veto does not serve the interests of European citizens but interests of a current political force in power in the country which is using the veto right. The same can be said with decisions concerning EU's foreign policy and taxation... The Council doesn't represent the will of the people but the interests of the elites in power. We need democracy - the voice of the majority of Europeans to be heard. 	[0]
2	comment_188036	89.0	In favor	38.0	3.0	OtherIdeas	en	CFs	"I like this idea. Similar to my thoughts. If interested check EU tax resident: The future is work mobility""; simplify taxation, enhance remote working, enable inter-country recruitment for companies."""	[2]
3	comment_216481	219880.0	In favor	39.0	2.0	OtherIdeas	en	CFs	The European Union needs to adopt a Positive list, as the trade of exotic pets produces tremendous animal sufferance and has deleterious consequences for local ecosystems. The EU needs to take action on this urgent matter.	[0]
4	comment_28019	13864.0	In favor	75.0	5.0	Democracy	en	CFs	I agree! In many workplaces there are still restrictions or bans on trade union rights affecting workers.  Trade unions face challenges in asserting their rights to organise and negotiate with employers for decent pay and working conditions.   A   more equal and sustainable Europe needs more equal and sustainable workplaces.  Many tools can support this, including public procurement where social clauses can ensure that companies bidding for contracts respect unions.   	[1]
5	comment_207670	826.0	In favor	165.0	8.0	Health	en	CFs	"My grandfather is 98 and he is happy and in fairly good health thanks to the research and knowledge on aging done so far. He exercises every day, eat healthy, and reads to keep his mind sharp. He enjoys playing with his great grandchild and inspires and loves and is loved by his family. 
Longevity research have been criticized for allowing the elderly to selfishly hoard resources instead of making room for the young. I think that view of life is too pessimistic. There are many elderly people who loves to serve and contribute to society, and can do so much more if they were in better health. Moreover, life is intrinsically valuable, and its value goes beyond what one can do for society. 
Great people such as Albert Einstein, Nicolas Tesla, and Marie Curie would have contributed unimaginatively more to society if they were to be healthy for longer. "	[0]
6	comment_831	345.0	In favor	33.0	1.0	Digital	en	CFs	Probably use not only FOSS OSes but (mainly) FOSS in general, not only in administration, but also in all state institutions, such as schools, universities etc.	[1]
7	comment_22998	14160.0	In favor	23.0	1.0	Economy	en	CFs	"This could help to acquire the resources for social housing:
Fair Land-Ownership Distribution by Market-Share Weighted (Hyperbolic) Progressive Real-Estate Taxes"	[1]
8	comment_23696	1494.0	In favor	44.0	1.0	GreenDeal	en	CFs	If we combine that & for example move to regenerative agriculture, embrace microfinance systems & regional complementary money systems, we could harvest a whole bunch of benefits, especially for the society, health, development & economy in rural areas. 	[1]
9	comment_15603	703.0	In favor	113.0	4.0	Education	en	CFs	It's very important to have an union in terms of Education so that anyone inside of the union can work and study without worrying too much where they completed the process. So the entire process from kindergarten to the university should be in union. I could take kindergarten in Italy then move in Germany and do another year then finish my High School in France and university in Spain. All of this can be easily and painless done if you were to implement let's say a block chain were you can validate a student data and every school would just retrieve the necessary information of said student. 	[0]
10	comment_17528	1419.0	In favor	133.0	6.0	GreenDeal	en	CFs	"I would even go further & implement a European sustainability tax for all products from inside & outside the EU. This tax could be based on the sustainability goals of the United Nations. They are internationally recognized & very precise. This would make it possible to tax exploitation pollution of natural resources, CO2 & other greenhouse gas emissions, violation of human rights or terrible working conditions, no matter if the product is a plastic bag, an unsustainable t-shirt, a service, some food or a complex financial product.
As far as I know, all or most countries have agreed on these goals. The financial sector is starting to implement them and there are already internationally recognised lists which specify the details. "	[0]
11	comment_70984	69400.0	In favor	26.0	2.0	ValuesRights	en	CFe-dev	I agree. It is even the official language policy in the EU that all citizens should master their mother tongue and two other languages.	[1]
12	comment_52738	47491.0	In favor	73.0	3.0	EUInTheWorld	en	CFs	"I believe the EU should expedite the enlargement process towards the Western Balkans, to help them evolve in this regard. Instead of waiting for them to be prepared"" to join the EU, having them joined would facilitate the reconciliation problems. As you say, Montenegro for instance is a peaceful country which has made efforts to overcome past troubles, and that too should be acknowledged."""	[0]
13	comment_25181	7003.0	In favor	35.0	3.0	EUInTheWorld	en	CFs	"I totally agree that we need pan-European media. I believe that the EU commission can make practical move by issuing common broadcast licenses on European level.
More on link: 
Common broadcasting license"	[1]
14	comment_153517	16007.0	In favor	137.0	2.0	GreenDeal	en	CFs	"A common work is the key. You can watch my idea about protection of European species, common scientific work and justice against ecocides : http://decidim-dife/Decidim::Proposals::Proposal/130483?filter%5Bactivity%5D=all&filter%5Bcategoryid%5D%5B%5D=&filter%5Bcategoryid%5D%5B%5D=6&filter%5Brelatedto%5D=&filter%5Bsearchtext%5D=&filter%5Bstatewithdraw%5D=&locale=fr&order=mostcommented
http://decidim-dife/Decidim::Proposals::Proposal/132562
http://decidim-dife/Decidim::Proposals::Proposal/130516?filter%5Bactivity%5D=myproposals&filter%5Bcategoryid%5D%5B%5D=&filter%5Brelatedto%5D=&filter%5Bsearchtext%5D=&filter%5Bstate_withdraw%5D=&locale=fr&order=random
Wild lives matter !"	[2]
15	comment_140383	143387.0	In favor	14.0	1.0	GreenDeal	en	CFs	I support this initiative which is in the best interests of the commons.	[2]
16	comment_93920	86626.0	In favor	38.0	2.0	Education	en	CFs	Indeed, COVID has shown that in the times of hardship it was culture that brought  comfort,  inspiration and hope into people’s lives. Just think of how singing brought together on the balconies....	[2]
17	comment_122893	70825.0	In favor	100.0	9.0	ValuesRights	en	CFs	"The 'War on Drugs' gifted to us by the USA is absolute rubbish. Sugar is more dangerous than Cannabis! How many people have died on legal highs""? FAR too many. Death toll of Cannabis use = 0. More lives have been destroyed by drug laws than the drugs themselves. Besides, Cannabis is an herb, not a drug. Many herbs have medicinal properties. IF any become a health issue, that's how it needs to be addressed, as a health problem, not a crime!"""	[0]
18	comment_1846	671.0	In favor	203.0	8.0	GreenDeal	en	CFs	"While some of your points are totally valid and I agree with them, I find it a bit hard to understand some sections of your post. Maybe try writing in your native language next time, the system is made in a way to translate it automatically ;)
But to comment on what I understood: It's true that wind turbines kill a surprisingly high amount of flying animals, but I don't really see how it kills cows. It doesn't make people sick though, that's just a conspiracy and it's the same as saying that Wi-Fi or GPS signals are making people ill. Although that doesn't sound unbelievable, there were loads of studies about this and none of them found any health effect on living organisms. What people experience is a nocebo effect. Watch this video for more information: https://youtu.be/FfgT6zx4k3Q
What I mind about wind electricity the most is probably the way it affects the landscape. I don't know about others, but the turbines just don't look natural and destroy the view. And of course, the waste."	[0]
19	comment_2655	579.0	In favor	24.0	1.0	Economy	en	CFs	I suggest everyone to endorse the most successful idea of fiscal union: Making the EU budget work for Europeans: a Fiscal Union 	[1]
20	comment_106459	13837.0	In favor	22.0	2.0	Economy	en	CFs	"We need proper legislation instead of action plans! A real Pillar"", not a soft ""Pillow""!"""	[0]
21	comment_11867	9175.0	In favor	107.0	3.0	Economy	en	CFs	"You refer to the trend that is called job polarization"" by economists, see more about it in https://www.ft.com/content/79404fc3-e90b-30de-8b24-30b7f5a75da0 and https://www.ecb.europa.eu/pub/economic-bulletin/articles/2021/html/ecb.ebart202008_03~da0f5f792a.en.html"	[1]
22	comment_175396	185824.0	In favor	70.0	3.0	Economy	en	CFs	"The single market is the key and core achievement of the EU, based on the free circulation of people, goods, services and capital.
Reinvigorating and reinventing it as the dynamic engine for economic growth, innovation and competitiveness remains the challenge of each generation.
The real stories of industrialists and entrepreneurs give insights to the opportunities and challenges they experience in the single market."	[2]
23	comment_2823	133.0	In favor	200.0	12.0	Democracy	en	CFe-dev	"The idea to make the Council a proper Senate = Upper Chamber is not new, but still VERY valid. Consider the democratic legitimacy of the EP: fully established - one person, one vote. Consider the same of the COM: established through the EP, with hearings/votes on each Commissioner (n.b. a stronger democratic foundation than any national government has). Now consider the democratic legitimacy of the Council: each minister may be legitimate because of his/her national government (a diluted"" legitimacy, but still). However, the Council as a collective body is answerable to NOBODY! If you visualise the EU's democratic deficit: it is the Council of Ministers. "	[1]
24	comment_207805	188.0	In favor	14.0	2.0	Economy	en	CFs	Full support to this idea. It is a precondition towards the european federation	[1]
25	comment_207638	145.0	Against	101.0	6.0	Democracy	en	CFs	"Once implemented a real democracy in Europe where the european citizen is sovereign, yes the European Council can be removed.
As long as the EU has Member States based on the sovereignity, we need a European Council.
Within the current National-State judicial framework, the European Council solely can  propose new Treaties or modify existing ones. A more democractic EU can only happen thanks to the European Council. An alternative would be a revolution, the european citizen proclaims: we european citizen are above national state people! I am part of it  🙂 "	[2]
26	comment_611	210.0	Against	73.0	3.0	Migration	en	CFe-dev	IT WAS THE UK THAT REFUSED THE EU PROPOSAL OF EUROPEAN CITIZENSHIP FOR ITS CITIZENS LIVING IN THE EU. UNLUCKILY, AFTER BREXIT YOU HAVE BECOME A 3RD WORLD COUNTRY. BY THE WAY, ANY 3RD WORLD COUNTRY CITIZEN CAN GET HIS CITIZENSHIP THAT ENABLES HIM TO TRAVEL AND WORK FREELY IN ANY EU COUNTRY ONLY AFTER SOME YEARS OF PERMANENT RESIDENCE DEPENDING OF EACH EU COUNTRY'S IMMIGRATION POLICY. 	[0]
27	comment_17780	12970.0	Against	198.0	15.0	GreenDeal	en	CFe-dev	"To me the question seems more complex & maybe easier at the same time.
There seems to be a relationship between CO2 & PIB in the current system. But does that mean that the relationship is a law of nature? I don't think so. What is a real problem is that we have to grow in order to not fall into depression under the current system. Capital has to grow. Every company has to grow, every market, every economy in the world. Even if we only have a growth of a small percentage this means exponential growth in about numbers. And that's not sustainable.
What to do?
There are a whole bunch of suggestions. I do not know all of them. One comes from Nobel Prize winning Prof Yunus, who suggested that we should reconsider the setup of our economy & implement social business besides the current for profit businesses. Another is to use a sustainability tax to incentivize sustainable products & redirect capital where it is most useful. Another is creating local & regional circulation of money. "	[0]
28	comment_193283	1022.0	Against	86.0	5.0	OtherIdeas	en	CFs	Particularly the Ukrainian Olichargs have been plundering the country. Most of the transfer money of Russian Gas went into the pockets of these people. It is the same as with the former DDR which should also have been given the chance with some help to get their house in order prior to the reunification. Therefore some support to strenghten democratic values and once really up to speed potentially join. Not another Romania, Bulgaria and not to forget Poland and Hungary.	[0]
29	comment_18170	15032.0	Against	35.0	1.0	EUInTheWorld	en	CFs	The European Parliament has developed avenues for a common foreign and defence policy and should exercise the role and have prerogatives of a parliament to guide and control the external policies of the EU.	[1]
30	comment_357	228.0	Against	51.0	3.0	Democracy	en	CFs	No, direct election of a single leader by the people gives too much power to this person. And anyhow: nobody can know another person good enough. Look at the USA: the candidates for president are not real people, but are constructed by PR agencies.	[0]
31	comment_167939	67.0	Against	123.0	7.0	Democracy	en	CFs	Understandable from the first point (and worthwhile considering for the future) but I'm against direct election of such a combined office. Sounds too much like a French President to me. We don't need more 'Jupiters' in the Union. Meanwhile, I don't see why the Union is constantly called complex. It's nothing less nothing more complicated than in Member States. You've got an executive (ministries), lower house and (federal or not) upper house of the legislature and you've got a head of state (in our case 27 plus two officials = European Council). what's different or complex about that?	[0]
32	comment_219125	683.0	Against	43.0	2.0	Democracy	en	CFs	Democracy is best defended when the people of a country are allowed to set the course of a country without outside meddling. It's not the EU's business to govern its membes states, the member states govern the Union.	[1]
33	comment_218959	121871.0	Against	19.0	2.0	ValuesRights	en	CFs	"Currently they are a cancer in the European dream."""	[0]
34	comment_123850	132.0	Against	12.0	1.0	OtherIdeas	en	CFs	This would destroy tradtional rivalries that have added greatly to sports.	[1]
35	comment_151207	683.0	Against	45.0	3.0	Democracy	en	CFs	It is entirely unhelpful of you to present such a tendentiously misleading picture on a conference tha has to deal with a very real crisis within the EU. Much of that crisis stems from exactly this kind of ideologically driven distortion. Sad. 	[0]
36	comment_962	170.0	Against	25.0	1.0	EUInTheWorld	en	CFe-dev	I don't know, it sounds like we'd end up at war with Russia, or some other country before we knew it	[1]
37	comment_17972	837.0	Against	97.0	7.0	Migration	en	CFs	"Mass immigration is the biggest existential threat to the EU.
The UNCHR has already 70 million registered refugees, mainly from Africa and the ME. In Africa 400 million like to come to the EU.
Almost all people without a useful education.
There is no other solution than an, almost, total stop on immigration.
However EU members have committed them self to outdated international agreements (UN/EU).
These have to be replaced asap by realistic agreements, which take into account the interests of the EU population."	[0]
38	comment_151243	337.0	Against	14.0	1.0	ValuesRights	en	CFs	Absolutely unacceptable because it would lead to the politicisation of the justice system.	[0]
39	comment_188662	533.0	Against	46.0	3.0	EUInTheWorld	en	CFs	Disgusting and baseless smear against Hungary and vicious attack on Poland. The brainless, flippant fanaticism you displayed here completely undermines your stated aim of raising the level of a united European response to the external threats. You should be ashamed of yourself!	[0]
40	comment_5909	800.0	Against	35.0	1.0	Digital	en	CFs	I'm not against it per se, but the ECB is already investigating this and I don't think this is a predominant priority for the Conference on the future of the EU.	[0]
41	comment_15645	703.0	Against	148.0	5.0	Education	en	CFs	Oh god, think of the poor souls that would have to develop this enormous system... How many reforms every damn country would have to make and changes of when university starts and ends and grading systems and data collection systems that would have to be made and changed costing a ton of money when already available platforms work just fine to be honest. If not all countries have national platforms then just makes one so that we got 27 national platforms that are specifically tailored to each country's own education system and just a simple EU website through which you can access these 27 different national platforms. So you dont have to try and google your way through the process. Make a guide for each one too. That way it it wont be as discouraging as you say it is... 	[0]
42	comment_49171	1481.0	Against	172.0	8.0	GreenDeal	en	CFs	"There are whole regions which are completely energy autonome with wind energy, solar power & biogas - not only in developing countries, but in industrialised countries as well. It's not a question of technology, but just of mindset & innovative arrangement.
Where energy costs for consumers are high in combination with renewables, it's mostly due to political decisions & market set-up, not due to technical issues. Unfortunately old fashioned policies have made things very complicated. Where ever energy cooperations can play their part, things become much easier & more cost effective. If big companies have to deliver it all alone, things become difficult, complicated & costly, because their structures make it difficult to provide sophisticated setups for communities of small consumers. If they would concentrate on services for big consumers & let energy cooperations play their part in neighbourhoods, this would work much better. The settings would be more to the point. "	[0]
43	comment_8879	87.0	Against	34.0	2.0	Health	en	CFs	I believe that european companies were among the first to make high quality vaccine available. Actually most of the discussion has been about EU bureaucracy having problems to cope with the challenges. 	[0]
44	comment_206747	1603.0	Against	17.0	2.0	ValuesRights	en	CFs	Family policy is exclusive member state competence. The EU has ZERO say in the matter.	[0]
45	comment_19377	899.0	Against	29.0	2.0	Health	en	CFs	"Railway usually runs next to roads a lot of the time anyway, which are loud as well.
They're also still a lot quieter than planes."	[0]
46	comment_14621	12046.0	Against	172.0	10.0	Economy	en	CFe-dev	The topic here is redefinition of economic value and focus on the objective value, not the preservation of the status quo that got us here- on the verge of planet's destruction. And why should robotic work add value? Robotic work only saves humans their time like other tools do- for instance a garden rake. That should be its main purpose. Fetishizing subjective value will destroy us all. It is not normal to live in a world where Coinbase is worth more than the whole British Petroleum that makes products for real world transportation and owns tangible gas stations, oil platforms, etc. Our value system is way off.  Also if we don't know how much human time is needed for certain activities, there can never be a just division of labour. And why shouldn't we be allowed to know how much human time it costs to create and recycle a bottle of beer? Because of robots?	[0]
47	comment_208497	121871.0	Against	61.0	4.0	ValuesRights	en	CFs	Hungary (and some other member states) has also a vision about the European dream. It is true that this dream is not fully equal to the dream that the Western countries have. But here comes the motto of the EU: Unity in diversity. Unfortunately nowadays only the first part of this sentence is respected. 	[1]
48	comment_156916	13840.0	Against	55.0	3.0	ValuesRights	en	CFs	"Equal rights and opportunities for men and women is absolutely important AND mostly already achieved.
Gender equality"" these days is often used as cover for an attempt to sneak the postmodern definiton of ""gender"" into the European legal framework. This attempt must be resisted in every possible way. """	[2]
49	comment_20166	16402.0	Against	151.0	7.0	Democracy	en	CFs	"Details, details, details... what does it mean to be directly elected, not on a per-country basis""? What is the election method? How do you ensure national representation? How do you do all this without taking a step backwards in countries that use open lists or single transferable vote? Are there voting districts, and if so, what are they?"	[0]
