	id	id_prop	alignment	tokens	sentences	Topic	lan	dataset	comment	blob_sa_polarity	blob_sa_subjectivity
71	comment_150356	196.0	Against	2.0	1.0	Democracy	fr	CFs	Jamais!	0.0	0.0
72	comment_174539	114247.0	Against	3.0	1.0	Migration	fr	CFs	Parole parole parole	0.0	0.0
46	comment_237172	241365.0	In favor	4.0	1.0	OtherIdeas	fr	CFs	Je vote pour !	0.0	0.0
47	comment_14038	12311.0	In favor	4.0	1.0	OtherIdeas	fr	CFs	Tout à fait.	0.22	0.1
48	comment_57488	38512.0	In favor	4.0	1.0	OtherIdeas	fr	CFs	Très bonne initiative .	1.0	1.0
49	comment_2738	45.0	In favor	4.0	1.0	Democracy	fr	CFs	Plus que nécessaire ! 	0.24375000000000002	0.15000000000000002
50	comment_9382	1780.0	In favor	3.0	1.0	GreenDeal	fr	CFs	Très intéressant !	0.75	1.0
51	comment_232851	224995.0	In favor	2.0	1.0	OtherIdeas	fr	CFs	Proposition créative	0.0	0.0
52	comment_222719	248887.0	In favor	2.0	1.0	Democracy	fr	CFs	Completament d'acord	0.0	0.0
53	comment_176617	141670.0	In favor	5.0	1.0	GreenDeal	fr	CFe-dev	A similar idea: Digitalisering 	0.0	0.0
54	comment_9380	2400.0	In favor	3.0	1.0	ValuesRights	fr	CFs	Totalement d'accord !	0.125	0.75
55	comment_1110	441.0	In favor	2.0	1.0	Education	fr	CFs	Complètement d'accord 	0.1	0.75
56	comment_10630	5236.0	In favor	2.0	1.0	OtherIdeas	fr	CFs	Oui !	0.0125	0.0
57	comment_218494	23827.0	In favor	2.0	1.0	Democracy	fr	CFs	absolument pour	0.25	0.75
58	comment_196090	202489.0	In favor	4.0	1.0	OtherIdeas	fr	CFs	L'europe ce veut!	0.0	0.0
59	comment_209023	18844.0	In favor	5.0	1.0	Democracy	fr	CFs	C'est un besoin urgent ! 	-0.125	0.3
60	comment_221662	216910.0	In favor	3.0	1.0	Democracy	fr	CFs	Excellentes idées. 	0.5	0.9
61	comment_184505	150021.0	In favor	4.0	1.0	Digital	fr	CFs	Très bonne proposition!	1.0	1.0
62	comment_10633	642.0	In favor	3.0	1.0	ValuesRights	fr	CFs	Excellente idée !	0.625	0.9
63	comment_67519	64120.0	In favor	4.0	1.0	Health	fr	CFe-dev	je supporte cette initiative	0.0	0.0
64	comment_236875	269545.0	In favor	4.0	1.0	Migration	fr	CFs	Je partage cette analyse 	0.0	0.0
65	comment_25314	21319.0	In favor	5.0	1.0	Digital	fr	CFs	Important questions, indeed. 	0.4	0.45
66	comment_177610	189355.0	In favor	5.0	1.0	ValuesRights	fr	CFs	Bravo pour cette publication !	0.0	0.0
67	comment_235984	267400.0	In favor	5.0	1.0	Migration	fr	CFs	J'approuve pleinement cette proposition.	0.0	0.0
68	comment_58049	38512.0	In favor	4.0	1.0	OtherIdeas	fr	CFe-dev	Merci à vous.	0.3	0.2
69	comment_9417	7231.0	In favor	5.0	1.0	Migration	fr	CFs	Tout à fait d'accord !	0.275	0.1
70	comment_17925	14818.0	In favor	4.0	1.0	OtherIdeas	fr	CFs	ARTE Télévision , EURONEWS	0.0	0.0
50	comment_154277	130483.0	In favor	22.0	2.0	GreenDeal	fr	CFs	N'attendons pas qu'il soit trop tard ! Que l'Europe soutienne ses espèces, ainsi que les territoires ultra-marins de ses membres !	-0.390625	0.7
51	comment_168302	152329.0	In favor	17.0	2.0	ValuesRights	fr	CFs	La Science montre qu'un nouvel être humain existe dès la fécondation. Il doit être respecté.	0.26	0.25
52	comment_6636	1717.0	In favor	17.0	1.0	Democracy	fr	CFe-dev	Que par exemple Allemand, Anglais , Français soient les langues de production exclusives des documents.	0.060000000000000005	0.0125
53	comment_52309	437.0	In favor	75.0	3.0	Digital	fr	CFs	"Bonjour ,
Je suis très favorable à cette proposition ..
Mais pour çela îls nous faut être propriétaire des rezeaux , dès serveurs et autre espace de stockage .... Pas simple , Çar les géants du net ( americain) et certain pays( Chine )  Ons lá main mise sur se type de develloppement dè souvrainete...
Mais rien , n'est impossible , la technologie existe , îls nous faut juste la volonté ..."	0.15400000000000003	0.275
54	comment_66233	347.0	In favor	167.0	8.0	Democracy	fr	CFs	"Bonjour , 
Pour que çela puise fonctionner îls faut certain principe . 
Un exemple : 
- un politique , un pays  , un groupe de pression souhaitént l'adoption d'une nouvelle texte officiel ( constitution par exemple ) .
- Ce sujet est présenter et adopter par les parlementaires à la majorité (51% ) 
- Les politiques , les parlementaires , les juristes et spécialiste constitutionnel travail á l'élaboration de se texte , après avoir rendus leurs travail , ce texte dois  être présenter au peuples souvrain .
Un  referumdum ne dois pas être une question fermer et le texte doit être présenté et explique 6 mois avant pour être bien compris ...
Exemple de question. 
Voulez vous d'une constitution Europeenne ... Oui/ non 
Voulez vous de cette constitution ... Oui / non . 
Si le travail est fait correctement , çelle constitution est adopté. 
Si nous voulons d'une constitution et nous refusons se texte , retour à la composante 3 ( écriture )"	0.035833333333333335	0.15000000000000002
55	comment_63592	23761.0	In favor	61.0	4.0	Education	fr	CFs	"Bonjour , 
Je suis favorable au develloppement d'une chaîne de télévision europeenne ... Mais îls reste le probleme de lá langue dè ses programmes . Je suis pour l'emplois de l'espéranto avec un soutitrage en langue nationale. 
Maintenant , çela dois être neutre politiquement .... 
Ne pas oublier qu'ils y a des sujet sencible , même dàns notre union...  "	0.1	0.22000000000000003
56	comment_53989	34684.0	In favor	147.0	6.0	GreenDeal	fr	CFs	"Bonjour , 
Je suis d'accords avec votre commentaire...
Mais la mondialisation à etaient voulus pas les USA et le capitalisme ....
Que çela ruine nos pays et que lá polution soit importànte ne les inquiète nullement ... La mondialisation à favoriser l'exploitation des malheureux du monde entier, én Asie principalement ( Chine communiste ) , au détriment de l'emplois chez nous ( les grande fortune trouvée que nous étions trois chere , trops dè sociale"") . Ensuite, que le transports polluts le nomde entier leur importe peux . Dernierement l'enrichissement de la Chine communiste , semblent poser probleme àu USA en terme de liederschip ... Leur politique americaine est dè créé des tentions pour favoriser une guerre... La bonne question est de savoir si nous somme vassaux des USA et la chaire à canon de cette guerre dè demain...."""	0.08615384615384616	0.26153846153846155
57	comment_335	512.0	In favor	87.0	4.0	GreenDeal	fr	CFs	"Si je comprends bien, le système assure seul la traduction d'une langue européenne vers une autre. Aussi ne me parait pas très efficace qu'un roumain (ou un citoyen de n'importe quel autre pays) tente d'écrire dans la langue du pays où il a émigré. Car tel quel, votre message -- important -- semble être une plaisanterie de potache.
Mais que ma remarque ne soit pas un frein à votre désir légitime de crier votre indignation face aux industries agro-alimentaires."	0.03333333333333333	0.20555555555555555
58	comment_43633	28084.0	In favor	98.0	6.0	OtherIdeas	fr	CFs	"Bonjour , 
Malheureusement avec lá mise en plaçe dè certain gouvernement opposer au valeur humaniste et unioniste de l'UE . 
L'ons constate de forts relâchement de ses dèmarche d'intégration inter europeen ... Mais çela est une politique de destruction de notre union. 
Dèvons nous accepter çela , je ne crois pas , nous devons prendre des scantion ferme envers ses pays qui s'éloigne des objections d'adhésion ...
Suppression du vôtes des parlementaire de ses pays ...
Suppression des aides financiere directe et indireçte venant de notre union..
Enclenchement d'une procédure de rejets de ses pays ... "	0.07857142857142858	0.14285714285714285
59	comment_623	67.0	In favor	23.0	2.0	Democracy	fr	CFs	Totalement d'accord. Quoi de mieux qu'une figure unique élue directement par le peuple européen pour renforcer le sentiment d'appartenance à l'UE. 	0.17666666666666667	0.4166666666666667
60	comment_2301	807.0	In favor	60.0	3.0	Democracy	fr	CFs	"J'approuve, mais je critique quand même L'espéranto est une langue inventée de toutes pièces"". Lors de sa création, à la fin du XIXe siècle, les principales racines étaient latines et germaniques (et un peu slaves). "	0.025714285714285714	0.2642857142857143
61	comment_65506	63097.0	In favor	8.0	1.0	Economy	fr	CFe-dev	Éviter les mains-mise des étrangers sur nos cliniques	-0.2	0.3
62	comment_153948	153451.0	In favor	32.0	3.0	GreenDeal	fr	CFs	"C'est pas gagné pour le 2). Le gouvernement allemand agis avec d'autres pour bloquer toute initiative de l'UE pour le transport ferroviaire, le plus écologique. 
https://www.investigate-europe.eu/de/2021/entgleist-bahn-europa-verkehr/"	0.0675	0.05
63	comment_171966	133.0	In favor	152.0	8.0	Democracy	fr	CFs	"Le Parlement Européen est élu directement et est donc représentatif. Les débats sont retransmis et les influences enregistrées. Pas comme pour la Commission et le Conseil... voir même l'Eurogroupe qui n'existe pas ! 
En tant que Fédéralistes (Union des Fédéralistes Européens - www.uef.fr) nous privilégions une Assemblée Constituante, qui pourrait arriver, par exemple à :
1. Donner l'initiative législative pour le Parlement Européen, 
2. Créer une deuxième chambres haute"" réunissant le Conseil Européen et le Comité des Régions "	0.03	0.09999999999999999
64	comment_232949	237997.0	In favor	15.0	1.0	Migration	fr	CFs	Bien mais largement insuffisant dans les pays déstabilisés par la guerre ou les politiques irresponsables	0.037500000000000006	0.2
65	comment_65609	1291.0	In favor	135.0	4.0	EUInTheWorld	fr	CFs	"Bonjour , 
Certe nous avons le devoir de Defendre votre longue liste de principe ... Mais nous somme faible Çar îls n'y a pas d'union fédérale et chacun favorise ses intérêt economique et politique au détriment des autres ...
L'union européenne est surtout construits autours d'un marché unique , s'est une Europe des capitallisme ... L'exploitation des masse laborieuse a traversé notre union pour favoriser les bénéfices ... D'ailleurs l'Europe ne nous a pas Proteger dè la mondialisation ... 
Dè se fait , nous devons accepter de commercé avec des pays ne respeçtant pas nos critère humain ... 
Îls nous faut une autre Europe , plus democratique plus pres dè notre volonté d'union... Îls faut un nouveau traité européen qui nous conduise vers une union fédéral plus democratique dans sont fonctionnement ... "	0.03882352941176471	0.09705882352941178
66	comment_151046	134773.0	In favor	46.0	1.0	ValuesRights	fr	CFs	"NOUS VOULONS PLUS DE SANTÉ pour les personnes atteintes de trisomie 21 : L'Union européenne doit investir dans les soins de santé pour les personnes atteintes de
trisomie 21 afin de rester fidèle à ses valeurs fondamentales de dignité humaine et de droits
de l'homme."	0.128	0.15999999999999998
67	comment_132009	32473.0	In favor	170.0	3.0	Economy	fr	CFe-dev	"Dans un article du 2 septembre 1973 sur la crise de l'enseignement des langues aux États-Unis, Mario Pei proposa l'enseignement de l'espéranto comme base pour une éventuelle étude plus approfondie des langues, tout en soulignant qu'il est en soi un moyen de communication utile dans de nombreux pays du monde entier : “Ne voulant pas le moins du monde atténuer la valeur des autres langues actuellement enseignées, je pense que l’enseignement de l’espéranto aux degrés élémentaires présente plusieurs avantages : il a été prouvé expérimentalement que l’espéranto constitue un excellent pont pour l’étude des autres langues, car grâce à sa simplicité de structure et de vocabulaire il brise la résistance initiale de l’élève moyen unilingue. Il renforce en même temps son vocabulaire de mots étrangers et crée chez l’enfant une confiance en sa propre capacité d’étudier et d’assimiler des langues étrangères. “
Un avis toujours actuel."	0.05388888888888888	0.19722222222222222
68	comment_61060	181.0	In favor	181.0	5.0	Democracy	fr	CFs	"Bonjour , 
Pourquoi pas , mais soyons claire , les parlementaire europeen sont des inconnus , ils savent ce faire élire et ensuites îls disparaîent des écrans radars ...
Personne ne peux dire quel est leurs action ? Quel sont les votes de  telle ou telle individus ... Quel projet de lois Ons îls soutenus et contre les quel îls etaient opposer ... Á vrais dire  , ils sont sans contrôle et comblent de tous, ils sont peux pressents  a leur charge de represantation (50% dè temps Abcence ) ...
Donc franchement dire si vous compter sur ses gents pour Defendre lá democratie , vous etre tres mal tombée ... Surtout que beaucoups reste ouverte a l'action des lobbystes . Sans aucun contrôle , îls ne servent à rien ...
La democratie s'est certe être élut par le peuple , mais s'est surtout travailler dans l'intérêt du plus grand nombreux (donc sa supprime les lobbyiste et l'intérêt personnelle ) . Si le peuple n'as pas de contrôle et une information minutieuse ses n'importe quoi .. ( Pipos "	0.011538461538461536	0.29692307692307696
69	comment_22582	12772.0	In favor	14.0	1.0	Democracy	fr	CFs	"Que pensez-vous de cette idée : Représentation fluide
Je la trouve assez proche."	0.16	0.2
70	comment_99398	3598.0	In favor	22.0	1.0	Health	fr	CFs	La prévention commence par l'éducation donc promouvoir cela dans les écoles et inclure cette formation dans le cursus scolaire dès le primaire 	0.1	0.0
71	comment_117349	102037.0	In favor	129.0	4.0	Education	fr	CFe-dev	"Avis á ceux qui croient que la traduction automatique présente (déjà aujourd'hui) la solution face aux problèmes de la communication multilingue : le titre de cette proposition automatiquement traduite vers l'allemand est Spanischunterricht an der Schule in der Europäischen Gemeinschaft"", ce qui veut dire ""Enseignement de l'espagnol á l'école dans la communauté européenne"".  Donc ""espéranto"" = ""espagnol"" ! Et j'ai déjà vu le terme anglais ""Esperanto speakers"" (espérantophones) dans le titre d'une autre proposition traduite en allemand comme ""Esperanto-Lautsprecher"" (hautparleurs d'espéranto). Cela serait amusant si le message ne serait pas tellement faussé (ou ridiculisé) par de tels manquements que le résultat est une communication ratée."""	0.015833333333333328	0.20833333333333334
72	comment_78541	77947.0	In favor	18.0	2.0	Economy	fr	CFs	Très bien! Une très bonne chose pour toute l’Europe et l’Union Européenne.	0.305	0.375
73	comment_215656	13839.0	In favor	36.0	1.0	ValuesRights	fr	CFs	Il faut que la Commission (dans l'idéal, le gouvernement d'une Europe fédérale) soit compétente pour lancer une procédure qui ne puisse être bloquée par le droit de véto qu'impose l'unanimité au Conseil.	0.32333333333333336	0.26666666666666666
74	comment_228890	71545.0	In favor	64.0	4.0	GreenDeal	fr	CFe-dev	"Hello,
Oui, c'est une bonne proposition, mais il faut absolument que la protection de la biodiversité et de l'environnement soit incluse et soit prioritaire.
Aujourd'hui, le changement climatique sert de prétexte à des projets pour détruire la biodiversité et l'environnement. i.e. les projets éolien, les barrages, les mines d'extraction de terres rares, etc."	0.3025	0.4625
25	comment_207638	145.0	Against	101.0	6.0	Democracy	en	CFs	"Once implemented a real democracy in Europe where the european citizen is sovereign, yes the European Council can be removed.
As long as the EU has Member States based on the sovereignity, we need a European Council.
Within the current National-State judicial framework, the European Council solely can  propose new Treaties or modify existing ones. A more democractic EU can only happen thanks to the European Council. An alternative would be a revolution, the european citizen proclaims: we european citizen are above national state people! I am part of it  🙂 "	-0.2	0.05
26	comment_611	210.0	Against	73.0	3.0	Migration	en	CFe-dev	IT WAS THE UK THAT REFUSED THE EU PROPOSAL OF EUROPEAN CITIZENSHIP FOR ITS CITIZENS LIVING IN THE EU. UNLUCKILY, AFTER BREXIT YOU HAVE BECOME A 3RD WORLD COUNTRY. BY THE WAY, ANY 3RD WORLD COUNTRY CITIZEN CAN GET HIS CITIZENSHIP THAT ENABLES HIM TO TRAVEL AND WORK FREELY IN ANY EU COUNTRY ONLY AFTER SOME YEARS OF PERMANENT RESIDENCE DEPENDING OF EACH EU COUNTRY'S IMMIGRATION POLICY. 	0.0	0.1
27	comment_17780	12970.0	Against	198.0	15.0	GreenDeal	en	CFe-dev	"To me the question seems more complex & maybe easier at the same time.
There seems to be a relationship between CO2 & PIB in the current system. But does that mean that the relationship is a law of nature? I don't think so. What is a real problem is that we have to grow in order to not fall into depression under the current system. Capital has to grow. Every company has to grow, every market, every economy in the world. Even if we only have a growth of a small percentage this means exponential growth in about numbers. And that's not sustainable.
What to do?
There are a whole bunch of suggestions. I do not know all of them. One comes from Nobel Prize winning Prof Yunus, who suggested that we should reconsider the setup of our economy & implement social business besides the current for profit businesses. Another is to use a sustainability tax to incentivize sustainable products & redirect capital where it is most useful. Another is creating local & regional circulation of money. "	0.18	0.2
28	comment_193283	1022.0	Against	86.0	5.0	OtherIdeas	en	CFs	Particularly the Ukrainian Olichargs have been plundering the country. Most of the transfer money of Russian Gas went into the pockets of these people. It is the same as with the former DDR which should also have been given the chance with some help to get their house in order prior to the reunification. Therefore some support to strenghten democratic values and once really up to speed potentially join. Not another Romania, Bulgaria and not to forget Poland and Hungary.	0.0	0.0
29	comment_18170	15032.0	Against	35.0	1.0	EUInTheWorld	en	CFs	The European Parliament has developed avenues for a common foreign and defence policy and should exercise the role and have prerogatives of a parliament to guide and control the external policies of the EU.	0.0	0.0
30	comment_357	228.0	Against	51.0	3.0	Democracy	en	CFs	No, direct election of a single leader by the people gives too much power to this person. And anyhow: nobody can know another person good enough. Look at the USA: the candidates for president are not real people, but are constructed by PR agencies.	0.2	0.2
31	comment_167939	67.0	Against	123.0	7.0	Democracy	en	CFs	Understandable from the first point (and worthwhile considering for the future) but I'm against direct election of such a combined office. Sounds too much like a French President to me. We don't need more 'Jupiters' in the Union. Meanwhile, I don't see why the Union is constantly called complex. It's nothing less nothing more complicated than in Member States. You've got an executive (ministries), lower house and (federal or not) upper house of the legislature and you've got a head of state (in our case 27 plus two officials = European Council). what's different or complex about that?	0.15	0.09000000000000001
32	comment_219125	683.0	Against	43.0	2.0	Democracy	en	CFs	Democracy is best defended when the people of a country are allowed to set the course of a country without outside meddling. It's not the EU's business to govern its membes states, the member states govern the Union.	0.0	0.0
33	comment_218959	121871.0	Against	19.0	2.0	ValuesRights	en	CFs	"Currently they are a cancer in the European dream."""	0.0	0.0
34	comment_123850	132.0	Against	12.0	1.0	OtherIdeas	en	CFs	This would destroy tradtional rivalries that have added greatly to sports.	0.0	0.0
35	comment_151207	683.0	Against	45.0	3.0	Democracy	en	CFs	It is entirely unhelpful of you to present such a tendentiously misleading picture on a conference tha has to deal with a very real crisis within the EU. Much of that crisis stems from exactly this kind of ideologically driven distortion. Sad. 	0.12	0.15
36	comment_962	170.0	Against	25.0	1.0	EUInTheWorld	en	CFe-dev	I don't know, it sounds like we'd end up at war with Russia, or some other country before we knew it	0.0	0.0
37	comment_17972	837.0	Against	97.0	7.0	Migration	en	CFs	"Mass immigration is the biggest existential threat to the EU.
The UNCHR has already 70 million registered refugees, mainly from Africa and the ME. In Africa 400 million like to come to the EU.
Almost all people without a useful education.
There is no other solution than an, almost, total stop on immigration.
However EU members have committed them self to outdated international agreements (UN/EU).
These have to be replaced asap by realistic agreements, which take into account the interests of the EU population."	0.22499999999999998	0.0
38	comment_151243	337.0	Against	14.0	1.0	ValuesRights	en	CFs	Absolutely unacceptable because it would lead to the politicisation of the justice system.	0.0	0.0
39	comment_188662	533.0	Against	46.0	3.0	EUInTheWorld	en	CFs	Disgusting and baseless smear against Hungary and vicious attack on Poland. The brainless, flippant fanaticism you displayed here completely undermines your stated aim of raising the level of a united European response to the external threats. You should be ashamed of yourself!	0.0	0.0
40	comment_5909	800.0	Against	35.0	1.0	Digital	en	CFs	I'm not against it per se, but the ECB is already investigating this and I don't think this is a predominant priority for the Conference on the future of the EU.	0.15	0.3
41	comment_15645	703.0	Against	148.0	5.0	Education	en	CFs	Oh god, think of the poor souls that would have to develop this enormous system... How many reforms every damn country would have to make and changes of when university starts and ends and grading systems and data collection systems that would have to be made and changed costing a ton of money when already available platforms work just fine to be honest. If not all countries have national platforms then just makes one so that we got 27 national platforms that are specifically tailored to each country's own education system and just a simple EU website through which you can access these 27 different national platforms. So you dont have to try and google your way through the process. Make a guide for each one too. That way it it wont be as discouraging as you say it is... 	0.049999999999999996	0.04285714285714286
42	comment_49171	1481.0	Against	172.0	8.0	GreenDeal	en	CFs	"There are whole regions which are completely energy autonome with wind energy, solar power & biogas - not only in developing countries, but in industrialised countries as well. It's not a question of technology, but just of mindset & innovative arrangement.
Where energy costs for consumers are high in combination with renewables, it's mostly due to political decisions & market set-up, not due to technical issues. Unfortunately old fashioned policies have made things very complicated. Where ever energy cooperations can play their part, things become much easier & more cost effective. If big companies have to deliver it all alone, things become difficult, complicated & costly, because their structures make it difficult to provide sophisticated setups for communities of small consumers. If they would concentrate on services for big consumers & let energy cooperations play their part in neighbourhoods, this would work much better. The settings would be more to the point. "	0.165	0.325
43	comment_8879	87.0	Against	34.0	2.0	Health	en	CFs	I believe that european companies were among the first to make high quality vaccine available. Actually most of the discussion has been about EU bureaucracy having problems to cope with the challenges. 	0.0	0.0
44	comment_206747	1603.0	Against	17.0	2.0	ValuesRights	en	CFs	Family policy is exclusive member state competence. The EU has ZERO say in the matter.	-0.03	0.05
45	comment_19377	899.0	Against	29.0	2.0	Health	en	CFs	"Railway usually runs next to roads a lot of the time anyway, which are loud as well.
They're also still a lot quieter than planes."	0.0	0.0
46	comment_14621	12046.0	Against	172.0	10.0	Economy	en	CFe-dev	The topic here is redefinition of economic value and focus on the objective value, not the preservation of the status quo that got us here- on the verge of planet's destruction. And why should robotic work add value? Robotic work only saves humans their time like other tools do- for instance a garden rake. That should be its main purpose. Fetishizing subjective value will destroy us all. It is not normal to live in a world where Coinbase is worth more than the whole British Petroleum that makes products for real world transportation and owns tangible gas stations, oil platforms, etc. Our value system is way off.  Also if we don't know how much human time is needed for certain activities, there can never be a just division of labour. And why shouldn't we be allowed to know how much human time it costs to create and recycle a bottle of beer? Because of robots?	0.0975	0.042499999999999996
47	comment_208497	121871.0	Against	61.0	4.0	ValuesRights	en	CFs	Hungary (and some other member states) has also a vision about the European dream. It is true that this dream is not fully equal to the dream that the Western countries have. But here comes the motto of the EU: Unity in diversity. Unfortunately nowadays only the first part of this sentence is respected. 	0.0	0.0
48	comment_156916	13840.0	Against	55.0	3.0	ValuesRights	en	CFs	"Equal rights and opportunities for men and women is absolutely important AND mostly already achieved.
Gender equality"" these days is often used as cover for an attempt to sneak the postmodern definiton of ""gender"" into the European legal framework. This attempt must be resisted in every possible way. """	0.2	0.375
49	comment_20166	16402.0	Against	151.0	7.0	Democracy	en	CFs	"Details, details, details... what does it mean to be directly elected, not on a per-country basis""? What is the election method? How do you ensure national representation? How do you do all this without taking a step backwards in countries that use open lists or single transferable vote? Are there voting districts, and if so, what are they?"	0.0	0.0
